<?xml version="1.0" encoding="utf-8"?><testsuites><testsuite name="pytest" errors="0" failures="3" skipped="0" tests="11" time="5.315" timestamp="2024-01-15T10:03:27.115469" hostname="Santhoshs-MacBook-Air.local"><testcase classname="api.test_getCollection" name="test_get_collection_with_valid_key" time="0.275" /><testcase classname="api.test_getCollection" name="test_get_collection_with_invalid_key" time="0.128" /><testcase classname="api.test_getCollection" name="test_get_collection_with_invalid_request_parameter" time="0.205"><failure message="AssertionError: Expected status code 400, but got 200">setup_fixture = None

    def test_get_collection_with_invalid_request_parameter(setup_fixture):
        '''
        The objective of this test is to check response of get collection API
        with a wrong parameter and valid key
        the wrong parameter passed is "psrr" instead of "ps", "mat" instead of "material"
        :return: None
        '''
        params = {"key": configtest.VALID_API_KEY,
                  "involvedMaker": "Rembrandt van Rijn",
                  "format": "json", "culture": "en",
                  "p": "1", "psrr": '100001', "q": "a",
                  "type": "a", "mat": "a", "technique": "a",
                  "f.dating.period": "0","f.normalized32Colors.hex": "Color HEX",
                  "imgonly": "True", "toppieces": "True",
                  "s": "relevance"
                  }
        getCollectionHandler = GetCollection(configtest.BASE_URL)
        response = getCollectionHandler.get_collection(params)
&gt;       ResponseHandler.assert_unsuccessful_response_invalid_parameter(response)

api/test_getCollection.py:77: 
_ _ _ _ _ _ _ _ _ _ _ _ _ _ _ _ _ _ _ _ _ _ _ _ _ _ _ _ _ _ _ _ _ _ _ _ _ _ _ _ _ _ _ _ _ _ _ _ _ _ _ _ _ _ _ _ _ _ _ _ _ _ _ _ _ _ _ _ _ _ _ _ _ _ _ 

response = &lt;Response [200]&gt;

    @staticmethod
    def assert_unsuccessful_response_invalid_parameter(response):
&gt;       assert response.status_code == 400, f"Expected status code 400, but got {response.status_code}"
E       AssertionError: Expected status code 400, but got 200

../src/api/responseHandler.py:14: AssertionError</failure></testcase><testcase classname="api.test_getCollectionDetails" name="test_get_collection_details_with_valid_key" time="1.033" /><testcase classname="api.test_getCollectionDetails" name="test_get_collection_details_with_invalid_key" time="0.136" /><testcase classname="api.test_getCollectionDetails" name="test_get_collection_details_with_invalid_request_parameter" time="1.702"><failure message="AssertionError: Expected status code 400, but got 200">setup_fixture = None

    def test_get_collection_details_with_invalid_request_parameter(setup_fixture):
        '''
        The objective of this test is to check response of collection details API with an valid key
        and wrong parameter ('for', instead of 'format')
        :return:
        '''
        params = {"key": configtest.VALID_API_KEY, "for": "html", "culture": "en",
                  "object-number": "1"}
        getCollectionDetailsHandler = GetCollectionDetails(configtest.BASE_URL)
        response = getCollectionDetailsHandler.get_collection_details(params)
&gt;       ResponseHandler.assert_unsuccessful_response_invalid_parameter(response)

api/test_getCollectionDetails.py:57: 
_ _ _ _ _ _ _ _ _ _ _ _ _ _ _ _ _ _ _ _ _ _ _ _ _ _ _ _ _ _ _ _ _ _ _ _ _ _ _ _ _ _ _ _ _ _ _ _ _ _ _ _ _ _ _ _ _ _ _ _ _ _ _ _ _ _ _ _ _ _ _ _ _ _ _ 

response = &lt;Response [200]&gt;

    @staticmethod
    def assert_unsuccessful_response_invalid_parameter(response):
&gt;       assert response.status_code == 400, f"Expected status code 400, but got {response.status_code}"
E       AssertionError: Expected status code 400, but got 200

../src/api/responseHandler.py:14: AssertionError</failure></testcase><testcase classname="api.test_getCollectionDetails" name="test_get_collection_details_with_invalid_collection_id" time="0.110" /><testcase classname="api.test_getCollectionImage" name="test_get_collection_image_with_valid_key" time="0.625" /><testcase classname="api.test_getCollectionImage" name="test_get_collection_image_with_invalid_key" time="0.129" /><testcase classname="api.test_getCollectionImage" name="test_get_collection_image_with_invalid_request_parameter" time="0.690"><failure message="AssertionError: Expected status code 400, but got 200">setup_fixture = None

    def test_get_collection_image_with_invalid_request_parameter(setup_fixture):
        '''
        The objective of this test is to check response of image details API with an valid key
        and invalid parameter ,, "obje" instead of "object-number"
        :return:
        '''
        params = {"key": configtest.VALID_API_KEY, "obje": "1"}
        getCollectionImageHandler = GetCollectionImage(configtest.BASE_URL)
        response = getCollectionImageHandler.get_collection_image(params)
&gt;       ResponseHandler.assert_unsuccessful_response_invalid_parameter(response)

api/test_getCollectionImage.py:63: 
_ _ _ _ _ _ _ _ _ _ _ _ _ _ _ _ _ _ _ _ _ _ _ _ _ _ _ _ _ _ _ _ _ _ _ _ _ _ _ _ _ _ _ _ _ _ _ _ _ _ _ _ _ _ _ _ _ _ _ _ _ _ _ _ _ _ _ _ _ _ _ _ _ _ _ 

response = &lt;Response [200]&gt;

    @staticmethod
    def assert_unsuccessful_response_invalid_parameter(response):
&gt;       assert response.status_code == 400, f"Expected status code 400, but got {response.status_code}"
E       AssertionError: Expected status code 400, but got 200

../src/api/responseHandler.py:14: AssertionError</failure></testcase><testcase classname="api.test_getCollectionImage" name="test_get_collection_image_with_invalid_collection_id" time="0.108" /></testsuite></testsuites>